{
	"info": {
		"_postman_id": "32776623-2974-449d-ae51-16a20114f051",
		"name": "TaskServer",
		"schema": "https://schema.getpostman.com/json/collection/v2.1.0/collection.json"
	},
	"item": [
		{
			"name": "User",
			"item": [
				{
					"name": "GetUser",
					"protocolProfileBehavior": {
						"disableBodyPruning": true
					},
					"request": {
						"method": "GET",
						"header": [],
						"body": {
							"mode": "raw",
							"raw": ""
						},
						"url": {
							"raw": "{{host_core_local}}/users/1",
							"host": [
								"{{host_core_local}}"
							],
							"path": [
								"users",
								"1"
							]
						}
					},
					"response": []
				},
				{
					"name": "GetUsers",
					"protocolProfileBehavior": {
						"disableBodyPruning": true
					},
					"request": {
						"method": "GET",
						"header": [],
						"body": {
							"mode": "raw",
							"raw": ""
						},
						"url": {
							"raw": "{{host_core_local}}/users/all",
							"host": [
								"{{host_core_local}}"
							],
							"path": [
								"users",
								"all"
							]
						}
					},
					"response": []
				},
				{
					"name": "CreateUser",
					"request": {
						"method": "POST",
						"header": [
							{
								"key": "Content-Type",
								"name": "Content-Type",
								"value": "application/json",
								"type": "text"
							}
						],
						"body": {
							"mode": "raw",
							"raw": "{\n\t\"name\": \"admin\",\n\t\"email\": \"admin@mail.com\"\n}"
						},
						"url": {
							"raw": "{{host_core_local}}/users",
							"host": [
								"{{host_core_local}}"
							],
							"path": [
								"users"
							]
						}
					},
					"response": []
				},
				{
					"name": "UpdateUser",
					"request": {
						"method": "PUT",
						"header": [
							{
								"key": "Content-Type",
								"name": "Content-Type",
								"type": "text",
								"value": "application/json"
							}
						],
						"body": {
							"mode": "raw",
							"raw": "{\n\t\"name\": \"admin1\",\n\t\"email\": \"admin1@mail.com\"\n}"
						},
						"url": {
							"raw": "{{host_core_local}}/users/1",
							"host": [
								"{{host_core_local}}"
							],
							"path": [
								"users",
								"1"
							]
						}
					},
					"response": []
				},
				{
					"name": "DeleteUser",
					"request": {
						"method": "DELETE",
						"header": [],
						"body": {
							"mode": "raw",
							"raw": ""
						},
						"url": {
							"raw": "{{host_core_local}}/users/1",
							"host": [
								"{{host_core_local}}"
							],
							"path": [
								"users",
								"1"
							]
						}
					},
					"response": []
				}
			]
		},
		{
			"name": "Group",
			"item": [
				{
					"name": "GetGroup",
					"protocolProfileBehavior": {
						"disableBodyPruning": true
					},
					"request": {
						"method": "GET",
						"header": [],
						"body": {
							"mode": "raw",
							"raw": ""
						},
						"url": {
							"raw": "{{host_core_local}}/groups/1",
							"host": [
								"{{host_core_local}}"
							],
							"path": [
								"groups",
								"1"
							]
						}
					},
					"response": []
				},
				{
					"name": "GetGroups",
					"protocolProfileBehavior": {
						"disableBodyPruning": true
					},
					"request": {
						"method": "GET",
						"header": [],
						"body": {
							"mode": "raw",
							"raw": ""
						},
						"url": {
							"raw": "{{host_core_local}}/groups/all",
							"host": [
								"{{host_core_local}}"
							],
							"path": [
								"groups",
								"all"
							]
						}
					},
					"response": []
				},
				{
					"name": "CreateGroup",
					"request": {
						"method": "POST",
						"header": [
							{
								"key": "Content-Type",
								"name": "Content-Type",
								"type": "text",
								"value": "application/json"
							}
						],
						"body": {
							"mode": "raw",
							"raw": "{\n\t\"name\": \"admin\"\n}"
						},
						"url": {
							"raw": "{{host_core_local}}/groups",
							"host": [
								"{{host_core_local}}"
							],
							"path": [
								"groups"
							]
						}
					},
					"response": []
				},
				{
					"name": "UpdateGroup",
					"request": {
						"method": "PUT",
						"header": [
							{
								"key": "Content-Type",
								"name": "Content-Type",
								"type": "text",
								"value": "application/json"
							}
						],
						"body": {
							"mode": "raw",
							"raw": "{\n\t\"name\": \"admin2\"\n}"
						},
						"url": {
							"raw": "{{host_core_local}}/groups/1",
							"host": [
								"{{host_core_local}}"
							],
							"path": [
								"groups",
								"1"
							]
						}
					},
					"response": []
				},
				{
					"name": "DeleteGroups",
					"request": {
						"method": "DELETE",
						"header": [],
						"body": {
							"mode": "raw",
							"raw": ""
						},
						"url": {
							"raw": "{{host_core_local}}/groups/1",
							"host": [
								"{{host_core_local}}"
							],
							"path": [
								"groups",
								"1"
							]
						}
					},
					"response": []
				}
			]
		},
		{
			"name": "UserGroup",
			"item": [
				{
					"name": "GetGroups",
					"protocolProfileBehavior": {
						"disableBodyPruning": true
					},
					"request": {
						"method": "GET",
						"header": [],
						"body": {
							"mode": "raw",
							"raw": ""
						},
						"url": {
							"raw": "{{host_core_local}}/users/1/groups",
							"host": [
								"{{host_core_local}}"
							],
							"path": [
								"users",
								"1",
								"groups"
							]
						}
					},
					"response": []
				},
				{
					"name": "AddGroup",
					"request": {
						"method": "POST",
						"header": [
							{
								"key": "Content-Type",
								"name": "Content-Type",
								"type": "text",
								"value": "application/json"
							}
						],
						"body": {
							"mode": "raw",
							"raw": "{\n\t\"name\": \"admin\",\n\t\"email\": \"admin@mail.com\"\n}"
						},
						"url": {
							"raw": "{{host_core_local}}/users/2/groups/2",
							"host": [
								"{{host_core_local}}"
							],
							"path": [
								"users",
								"2",
								"groups",
								"2"
							]
						}
					},
					"response": []
				},
				{
					"name": "DeleteGroup",
					"request": {
						"method": "DELETE",
						"header": [],
						"body": {
							"mode": "raw",
							"raw": ""
						},
						"url": {
							"raw": "{{host_core_local}}/users/2/groups/2",
							"host": [
								"{{host_core_local}}"
							],
							"path": [
								"users",
								"2",
								"groups",
								"2"
							]
						}
					},
					"response": []
				}
			]
		},
		{
			"name": "GroupUser",
			"item": [
				{
					"name": "GetUsers",
					"protocolProfileBehavior": {
						"disableBodyPruning": true
					},
					"request": {
						"method": "GET",
						"header": [],
						"body": {
							"mode": "raw",
							"raw": ""
						},
						"url": {
							"raw": "{{host_core_local}}/groups/1/users",
							"host": [
								"{{host_core_local}}"
							],
							"path": [
								"groups",
								"1",
								"users"
							]
						}
					},
					"response": []
				},
				{
					"name": "AddUser",
					"request": {
						"method": "POST",
						"header": [
							{
								"key": "Content-Type",
								"name": "Content-Type",
								"type": "text",
								"value": "application/json"
							}
						],
						"body": {
							"mode": "raw",
							"raw": "{\n\t\"name\": \"admin\",\n\t\"email\": \"admin@mail.com\"\n}"
						},
						"url": {
							"raw": "{{host_core_local}}/groups/2/users/2",
							"host": [
								"{{host_core_local}}"
							],
							"path": [
								"groups",
								"2",
								"users",
								"2"
							]
						}
					},
					"response": []
				},
				{
					"name": "DeleteGroup",
					"request": {
						"method": "DELETE",
						"header": [],
						"body": {
							"mode": "raw",
							"raw": ""
						},
						"url": {
							"raw": "{{host_core_local}}/groups/2/users/2",
							"host": [
								"{{host_core_local}}"
							],
							"path": [
								"groups",
								"2",
								"users",
								"2"
							]
						}
					},
					"response": []
				}
			]
		}
	]
}